c ----------------------------------------------------
c G10x20.gr: 10 x 20 grid
c ----------------------------------------------------
p sp 200 740
a 0 1 1847
a 0 20 5200
a 1 0 7297
a 1 2 6133
a 1 21 6299
a 2 1 6395
a 2 3 6860
a 2 22 3538
a 3 2 5494
a 3 4 1660
a 3 23 7752
a 4 3 2129
a 4 5 8568
a 4 24 9521
a 5 4 8211
a 5 6 4935
a 5 25 17
a 6 5 8878
a 6 7 9450
a 6 26 7164
a 7 6 3308
a 7 8 8118
a 7 27 2777
a 8 7 1746
a 8 9 3530
a 8 28 8993
a 9 8 8184
a 9 10 1462
a 9 29 1216
a 10 9 9225
a 10 11 3970
a 10 30 7990
a 11 10 8366
a 11 12 5747
a 11 31 5562
a 12 32 4280
a 12 11 3982
a 12 13 6285
a 13 33 1403
a 13 12 1507
a 13 14 7196
a 14 34 4215
a 14 13 5670
a 14 15 501
a 15 16 1906
a 15 35 6631
a 15 14 6280
a 16 17 5952
a 16 36 5836
a 16 15 4558
a 17 16 1633
a 17 18 7188
a 17 37 5023
a 18 17 5546
a 18 19 1242
a 18 38 2227
a 19 18 3204
a 19 39 4601
a 20 0 3380
a 20 21 475
a 20 40 90
a 21 1 4832
a 21 20 7152
a 21 22 2598
a 21 41 2667
a 22 2 4608
a 22 21 9226
a 22 23 9946
a 22 42 1289
a 23 3 5018
a 23 22 1380
a 23 24 4250
a 23 43 6980
a 24 4 715
a 24 23 8140
a 24 25 5833
a 24 44 3687
a 25 5 2277
a 25 24 4304
a 25 26 2138
a 25 45 5301
a 26 6 8580
a 26 25 7439
a 26 27 7528
a 26 46 273
a 27 7 8599
a 27 26 8800
a 27 28 586
a 27 47 3078
a 28 48 3610
a 28 8 2603
a 28 27 3124
a 28 29 9528
a 29 49 2008
a 29 9 707
a 29 28 1091
a 29 30 6512
a 30 50 64
a 30 10 8073
a 30 29 7898
a 30 31 5792
a 31 32 3205
a 31 51 4251
a 31 11 5532
a 31 30 9506
a 32 33 9637
a 32 52 8658
a 32 12 9086
a 32 31 1588
a 33 32 5918
a 33 34 8153
a 33 53 9024
a 33 13 6937
a 34 33 1074
a 34 35 4004
a 34 54 5598
a 34 14 1969
a 35 34 4056
a 35 36 8781
a 35 55 2387
a 35 15 3717
a 36 16 9750
a 36 35 4949
a 36 37 3604
a 36 56 5747
a 37 17 7724
a 37 36 5896
a 37 38 2786
a 37 57 1028
a 38 18 1718
a 38 37 266
a 38 39 3517
a 38 58 3061
a 39 19 6793
a 39 38 1572
a 39 59 2479
a 40 20 2649
a 40 41 8945
a 40 60 1255
a 41 21 6388
a 41 40 8305
a 41 42 3200
a 41 61 4138
a 42 22 6844
a 42 41 2746
a 42 43 8509
a 42 62 5421
a 43 23 2076
a 43 42 9124
a 43 44 1659
a 43 63 7169
a 44 64 2898
a 44 24 9344
a 44 43 9515
a 44 45 7747
a 45 65 6503
a 45 25 1836
a 45 44 3217
a 45 46 5417
a 46 66 6042
a 46 26 9514
a 46 45 6142
a 46 47 4862
a 47 48 5379
a 47 67 5145
a 47 27 7073
a 47 46 5967
a 48 49 5274
a 48 68 1190
a 48 28 1845
a 48 47 7734
a 49 48 537
a 49 50 2824
a 49 69 6143
a 49 29 9595
a 50 49 1390
a 50 51 4828
a 50 70 7422
a 50 30 1260
a 51 50 8579
a 51 52 6533
a 51 71 5896
a 51 31 1509
a 52 32 3955
a 52 51 1458
a 52 53 3589
a 52 72 6385
a 53 33 5242
a 53 52 2472
a 53 54 9415
a 53 73 8788
a 54 34 3886
a 54 53 2039
a 54 55 4383
a 54 74 164
a 55 35 9406
a 55 54 1768
a 55 56 2821
a 55 75 3169
a 56 36 9441
a 56 55 3081
a 56 57 2274
a 56 76 2567
a 57 37 3492
a 57 56 512
a 57 58 2206
a 57 77 141
a 58 38 7561
a 58 57 8886
a 58 59 4267
a 58 78 5097
a 59 39 8361
a 59 58 7732
a 59 79 6555
a 60 80 9510
a 60 40 9403
a 60 61 5152
a 61 81 3978
a 61 41 8733
a 61 60 9702
a 61 62 94
a 62 82 3833
a 62 42 9131
a 62 61 7301
a 62 63 8475
a 63 64 3877
a 63 83 6827
a 63 43 7197
a 63 62 4034
a 64 65 1459
a 64 84 7450
a 64 44 9170
a 64 63 2158
a 65 64 1120
a 65 66 4241
a 65 85 5062
a 65 45 77
a 66 65 2184
a 66 67 7408
a 66 86 5370
a 66 46 5140
a 67 66 2273
a 67 68 1949
a 67 87 932
a 67 47 3528
a 68 48 9393
a 68 67 7773
a 68 69 7405
a 68 88 5666
a 69 49 7763
a 69 68 9880
a 69 70 4233
a 69 89 7867
a 70 50 9039
a 70 69 1749
a 70 71 5673
a 70 90 6865
a 71 51 4079
a 71 70 1754
a 71 72 9110
a 71 91 2032
a 72 52 6296
a 72 71 3453
a 72 73 7128
a 72 92 4211
a 73 53 7972
a 73 72 4648
a 73 74 5745
a 73 93 3220
a 74 54 6871
a 74 73 3770
a 74 75 6885
a 74 94 9107
a 75 55 7251
a 75 74 8316
a 75 76 6881
a 75 95 4183
a 76 96 1253
a 76 56 4480
a 76 75 3250
a 76 77 1855
a 77 97 8638
a 77 57 8076
a 77 76 7475
a 77 78 3391
a 78 98 2951
a 78 58 2674
a 78 77 3577
a 78 79 2289
a 79 99 744
a 79 59 4933
a 79 78 1580
a 80 81 5208
a 80 100 4117
a 80 60 3261
a 81 80 4588
a 81 82 7088
a 81 101 9566
a 81 61 3188
a 82 81 6211
a 82 83 1973
a 82 102 7209
a 82 62 6003
a 83 82 7071
a 83 84 3231
a 83 103 2807
a 83 63 896
a 84 64 8096
a 84 83 1171
a 84 85 9567
a 84 104 9039
a 85 65 2206
a 85 84 4646
a 85 86 5082
a 85 105 6917
a 86 66 4124
a 86 85 3558
a 86 87 4402
a 86 106 2093
a 87 67 7936
a 87 86 5160
a 87 88 3136
a 87 107 7274
a 88 68 308
a 88 87 6295
a 88 89 116
a 88 108 7118
a 89 69 7028
a 89 88 343
a 89 90 9696
a 89 109 4049
a 90 70 7404
a 90 89 4206
a 90 91 4403
a 90 110 3908
a 91 71 8045
a 91 90 9832
a 91 92 5741
a 91 111 3573
a 92 112 6668
a 92 72 5267
a 92 91 1486
a 92 93 8943
a 93 113 5586
a 93 73 6335
a 93 92 5882
a 93 94 838
a 94 114 3292
a 94 74 4208
a 94 93 42
a 94 95 4149
a 95 96 6621
a 95 115 1049
a 95 75 6098
a 95 94 2529
a 96 97 5330
a 96 116 6470
a 96 76 6486
a 96 95 558
a 97 96 3100
a 97 98 4007
a 97 117 4580
a 97 77 4068
a 98 97 7126
a 98 99 9494
a 98 118 7410
a 98 78 3697
a 99 98 9698
a 99 119 754
a 99 79 6575
a 100 80 2731
a 100 101 1236
a 100 120 9650
a 101 81 2886
a 101 100 493
a 101 102 3828
a 101 121 6016
a 102 82 4252
a 102 101 1746
a 102 103 7580
a 102 122 1091
a 103 83 4313
a 103 102 5127
a 103 104 4906
a 103 123 520
a 104 84 9647
a 104 103 8179
a 104 105 134
a 104 124 4014
a 105 85 1676
a 105 104 2518
a 105 106 1617
a 105 125 7003
a 106 86 6021
a 106 105 1388
a 106 107 4100
a 106 126 6747
a 107 87 3750
a 107 106 4557
a 107 108 5904
a 107 127 2192
a 108 128 8171
a 108 88 1368
a 108 107 8667
a 108 109 5975
a 109 129 832
a 109 89 9649
a 109 108 4107
a 109 110 1725
a 110 130 6040
a 110 90 1316
a 110 109 3821
a 110 111 343
a 111 112 626
a 111 131 6549
a 111 91 3058
a 111 110 8507
a 112 113 3220
a 112 132 2943
a 112 92 1029
a 112 111 1679
a 113 112 1455
a 113 114 2857
a 113 133 2609
a 113 93 5192
a 114 113 7337
a 114 115 514
a 114 134 4188
a 114 94 6213
a 115 114 9407
a 115 116 3643
a 115 135 25
a 115 95 2899
a 116 96 7047
a 116 115 94
a 116 117 4951
a 116 136 2807
a 117 97 8940
a 117 116 9123
a 117 118 5060
a 117 137 9166
a 118 98 5269
a 118 117 2353
a 118 119 9994
a 118 138 4914
a 119 99 6878
a 119 118 7104
a 119 139 9979
a 120 100 2256
a 120 121 3519
a 120 140 1044
a 121 101 6231
a 121 120 6146
a 121 122 1034
a 121 141 8490
a 122 102 8962
a 122 121 5480
a 122 123 765
a 122 142 8637
a 123 103 2951
a 123 122 4654
a 123 124 9427
a 123 143 6317
a 124 144 2508
a 124 104 4535
a 124 123 5850
a 124 125 7727
a 125 145 2175
a 125 105 9752
a 125 124 1
a 125 126 806
a 126 146 5561
a 126 106 3947
a 126 125 6400
a 126 127 1758
a 127 128 7430
a 127 147 7115
a 127 107 7808
a 127 126 7417
a 128 129 182
a 128 148 7544
a 128 108 535
a 128 127 5169
a 129 128 5135
a 129 130 7471
a 129 149 4048
a 129 109 5672
a 130 129 7307
a 130 131 7434
a 130 150 7343
a 130 110 6093
a 131 130 2977
a 131 132 4065
a 131 151 7714
a 131 111 1095
a 132 112 1115
a 132 131 9318
a 132 133 3358
a 132 152 4975
a 133 113 747
a 133 132 1474
a 133 134 7481
a 133 153 1377
a 134 114 7081
a 134 133 996
a 134 135 9380
a 134 154 7535
a 135 115 196
a 135 134 7625
a 135 136 4464
a 135 155 9398
a 136 116 1582
a 136 135 9277
a 136 137 231
a 136 156 3251
a 137 117 2236
a 137 136 1973
a 137 138 7809
a 137 157 566
a 138 118 8155
a 138 137 7237
a 138 139 9031
a 138 158 1226
a 139 119 701
a 139 138 5851
a 139 159 9709
a 140 160 381
a 140 120 5131
a 140 141 7633
a 141 161 1878
a 141 121 8908
a 141 140 3405
a 141 142 958
a 142 162 9838
a 142 122 1571
a 142 141 5721
a 142 143 4991
a 143 144 1837
a 143 163 5544
a 143 123 4441
a 143 142 8299
a 144 145 1898
a 144 164 2815
a 144 124 9734
a 144 143 9631
a 145 144 1502
a 145 146 6791
a 145 165 5772
a 145 125 5419
a 146 145 8017
a 146 147 4957
a 146 166 2015
a 146 126 6131
a 147 146 21
a 147 148 5072
a 147 167 5849
a 147 127 7411
a 148 128 8706
a 148 147 3764
a 148 149 2720
a 148 168 5499
a 149 129 1597
a 149 148 7552
a 149 150 7373
a 149 169 4816
a 150 130 7661
a 150 149 9366
a 150 151 5666
a 150 170 2558
a 151 131 3268
a 151 150 7009
a 151 152 1787
a 151 171 3989
a 152 132 8288
a 152 151 9157
a 152 153 9451
a 152 172 1857
a 153 133 9481
a 153 152 8155
a 153 154 3762
a 153 173 7608
a 154 134 8482
a 154 153 2015
a 154 155 7403
a 154 174 5790
a 155 135 7987
a 155 154 1232
a 155 156 9575
a 155 175 3114
a 156 176 9197
a 156 136 1669
a 156 155 4617
a 156 157 99
a 157 177 8256
a 157 137 1228
a 157 156 8591
a 157 158 3272
a 158 178 1484
a 158 138 8882
a 158 157 9254
a 158 159 6854
a 159 179 8333
a 159 139 8235
a 159 158 8665
a 160 161 5544
a 160 180 428
a 160 140 4846
a 161 160 9046
a 161 162 7185
a 161 181 4958
a 161 141 356
a 162 161 341
a 162 163 2407
a 162 182 4399
a 162 142 3309
a 163 162 8299
a 163 164 2294
a 163 183 7101
a 163 143 3307
a 164 144 9905
a 164 163 28
a 164 165 346
a 164 184 5813
a 165 145 8176
a 165 164 969
a 165 166 5558
a 165 185 6739
a 166 146 677
a 166 165 9732
a 166 167 6682
a 166 186 5002
a 167 147 1737
a 167 166 6294
a 167 168 789
a 167 187 9952
a 168 148 4093
a 168 167 6572
a 168 169 1212
a 168 188 3431
a 169 149 4694
a 169 168 8823
a 169 170 29
a 169 189 4791
a 170 150 8817
a 170 169 6678
a 170 171 3554
a 170 190 7442
a 171 151 6760
a 171 170 143
a 171 172 5261
a 171 191 9910
a 172 192 215
a 172 152 229
a 172 171 9245
a 172 173 4131
a 173 193 2612
a 173 153 6035
a 173 172 83
a 173 174 1579
a 174 194 7819
a 174 154 3888
a 174 173 4189
a 174 175 4072
a 175 176 9506
a 175 195 4033
a 175 155 7938
a 175 174 4539
a 176 177 195
a 176 196 9282
a 176 156 6760
a 176 175 5626
a 177 176 9306
a 177 178 6793
a 177 197 4052
a 177 157 8805
a 178 177 5002
a 178 179 3811
a 178 198 1320
a 178 158 3304
a 179 178 5252
a 179 199 375
a 179 159 4401
a 180 160 3701
a 180 181 628
a 181 161 6656
a 181 180 9778
a 181 182 3506
a 182 162 7161
a 182 181 1460
a 182 183 1601
a 183 163 4420
a 183 182 1816
a 183 184 7308
a 184 164 7194
a 184 183 9408
a 184 185 3673
a 185 165 3515
a 185 184 8637
a 185 186 4633
a 186 166 773
a 186 185 174
a 186 187 2767
a 187 167 4432
a 187 186 2674
a 187 188 5042
a 188 168 7042
a 188 187 5277
a 188 189 3225
a 189 169 372
a 189 188 2220
a 189 190 5761
a 190 170 2939
a 190 189 8521
a 190 191 3681
a 191 192 7942
a 191 171 4583
a 191 190 7295
a 192 193 9158
a 192 172 6942
a 192 191 9344
a 193 192 280
a 193 194 6302
a 193 173 473
a 194 193 7622
a 194 195 2110
a 194 174 5137
a 195 194 3699
a 195 196 231
a 195 175 1289
a 196 176 7162
a 196 195 6495
a 196 197 6203
a 197 177 8152
a 197 196 378
a 197 198 9841
a 198 178 5280
a 198 197 1872
a 198 199 8674
a 199 179 611
a 199 198 645
