# graph (../graphs/grids/G10x90.gr) : 900 vertices and 3400 edges : 1 ms

Algo	source	target	dist	nb_h	Mnb_h	k	k*	trees	time (ms)
Y	0	899	332339	123	123	2	2	129	16
Y	0	899	332339	123	125	5	5	290	33
Y	0	899	332339	123	125	10	10	395	39
Y	0	899	332339	123	127	20	20	692	65
Y	0	899	332339	123	129	50	50	1431	123
Y	0	899	332339	123	131	100	100	2764	233
Y	0	899	332339	123	131	200	200	5203	423
Y	0	899	332339	123	133	500	500	12019	918
Y	0	899	332339	123	135	1000	1000	22275	1627
Y	0	899	332339	123	135	5000	5000	99863	6872
Y	0	899	332339	123	137	10000	10000	189989	13098
NC	0	899	332339	123	123	2	2	48	42
NC	0	899	332339	123	125	5	5	109	42
NC	0	899	332339	123	125	10	10	152	42
NC	0	899	332339	123	127	20	20	266	43
NC	0	899	332339	123	129	50	50	553	45
NC	0	899	332339	123	131	100	100	1078	49
NC	0	899	332339	123	131	200	200	2052	58
NC	0	899	332339	123	133	500	500	4751	87
NC	0	899	332339	123	135	1000	1000	8851	137
NC	0	899	332339	123	135	5000	5000	40043	695
NC	0	899	332339	123	137	10000	10000	76474	1781
PNC	0	899	332339	123	123	2	2	1	0
PNC	0	899	332339	123	125	5	5	1	0
PNC	0	899	332339	123	125	10	10	1	0
PNC	0	899	332339	123	127	20	20	1	0
PNC	0	899	332339	123	129	50	50	6	0
PNC	0	899	332339	123	131	100	100	8	1
PNC	0	899	332339	123	131	200	200	18	4
PNC	0	899	332339	123	133	500	500	38	13
PNC	0	899	332339	123	135	1000	1000	79	33
PNC	0	899	332339	123	135	5000	5000	426	371
PNC	0	899	332339	123	137	10000	10000	853	1219
PNC*	0	899	332339	123	123	2	2	1	0
PNC*	0	899	332339	123	125	5	5	1	0
PNC*	0	899	332339	123	125	10	10	1	0
PNC*	0	899	332339	123	127	20	20	1	0
PNC*	0	899	332339	123	129	50	50	6	0
PNC*	0	899	332339	123	131	100	100	8	1
PNC*	0	899	332339	123	131	200	200	18	4
PNC*	0	899	332339	123	133	500	500	38	13
PNC*	0	899	332339	123	135	1000	1000	79	33
PNC*	0	899	332339	123	135	5000	5000	426	368
PNC*	0	899	332339	123	137	10000	10000	853	1201
SB	0	899	332339	123	123	2	2	1	0
SB	0	899	332339	123	125	5	5	1	0
SB	0	899	332339	123	125	10	10	1	0
SB	0	899	332339	123	127	20	20	1	0
SB	0	899	332339	123	129	50	50	6	0
SB	0	899	332339	123	131	100	100	8	0
SB	0	899	332339	123	131	200	200	18	2
SB	0	899	332339	123	133	500	500	38	7
SB	0	899	332339	123	135	1000	1000	79	15
SB	0	899	332339	123	135	5000	5000	423	79
SB	0	899	332339	123	137	10000	10000	846	157
SB*	0	899	332339	123	123	2	2	1	0
SB*	0	899	332339	123	125	5	5	1	0
SB*	0	899	332339	123	125	10	10	1	0
SB*	0	899	332339	123	127	20	20	1	0
SB*	0	899	332339	123	129	50	50	6	1
SB*	0	899	332339	123	131	100	100	8	3
SB*	0	899	332339	123	131	200	200	18	6
SB*	0	899	332339	123	133	500	500	38	14
SB*	0	899	332339	123	135	1000	1000	79	24
SB*	0	899	332339	123	135	5000	5000	423	82
SB*	0	899	332339	123	137	10000	10000	846	150
PSB	0	899	332339	123	123	2	2	1	0
PSB	0	899	332339	123	125	5	5	1	0
PSB	0	899	332339	123	125	10	10	1	0
PSB	0	899	332339	123	127	20	20	1	0
PSB	0	899	332339	123	129	50	50	4	0
PSB	0	899	332339	123	131	100	100	5	0
PSB	0	899	332339	123	131	200	200	13	1
PSB	0	899	332339	123	133	500	500	25	5
PSB	0	899	332339	123	135	1000	1000	54	12
PSB	0	899	332339	123	135	5000	5000	334	69
PSB	0	899	332339	123	137	10000	10000	685	137
PSBv2	0	899	332339	123	123	2	2	1	0
PSBv2	0	899	332339	123	125	5	5	1	0
PSBv2	0	899	332339	123	125	10	10	1	0
PSBv2	0	899	332339	123	127	20	20	1	0
PSBv2	0	899	332339	123	129	50	50	3	0
PSBv2	0	899	332339	123	131	100	100	4	0
PSBv2	0	899	332339	123	131	200	200	12	1
PSBv2	0	899	332339	123	133	500	500	24	5
PSBv2	0	899	332339	123	135	1000	1000	53	12
PSBv2	0	899	332339	123	135	5000	5000	340	69
PSBv2	0	899	332339	123	137	10000	10000	706	139
PSBv3	0	899	332339	123	123	2	2	1	0
PSBv3	0	899	332339	123	125	5	5	1	0
PSBv3	0	899	332339	123	125	10	10	1	0
PSBv3	0	899	332339	123	127	20	20	1	0
PSBv3	0	899	332339	123	129	50	50	3	0
PSBv3	0	899	332339	123	131	100	100	5	0
PSBv3	0	899	332339	123	131	200	200	13	1
PSBv3	0	899	332339	123	133	500	500	25	5
PSBv3	0	899	332339	123	135	1000	1000	54	12
PSBv3	0	899	332339	123	135	5000	5000	340	69
PSBv3	0	899	332339	123	137	10000	10000	706	137
Y	0	899	332339	123	123	2	2	129	15
Y	0	899	332339	123	125	5	5	290	32
Y	0	899	332339	123	125	10	10	395	38
Y	0	899	332339	123	127	20	20	692	64
Y	0	899	332339	123	129	50	50	1431	122
Y	0	899	332339	123	131	100	100	2764	230
Y	0	899	332339	123	131	200	200	5203	416
Y	0	899	332339	123	133	500	500	12019	903
Y	0	899	332339	123	135	1000	1000	22275	1605
Y	0	899	332339	123	135	5000	5000	99863	6824
Y	0	899	332339	123	137	10000	10000	189989	13025
NC	0	899	332339	123	123	2	2	48	0
NC	0	899	332339	123	125	5	5	109	0
NC	0	899	332339	123	125	10	10	152	0
NC	0	899	332339	123	127	20	20	266	1
NC	0	899	332339	123	129	50	50	553	3
NC	0	899	332339	123	131	100	100	1078	8
NC	0	899	332339	123	131	200	200	2052	17
NC	0	899	332339	123	133	500	500	4751	45
NC	0	899	332339	123	135	1000	1000	8851	95
NC	0	899	332339	123	135	5000	5000	40043	659
NC	0	899	332339	123	137	10000	10000	76474	1757
PNC	0	899	332339	123	123	2	2	1	0
PNC	0	899	332339	123	125	5	5	1	0
PNC	0	899	332339	123	125	10	10	1	0
PNC	0	899	332339	123	127	20	20	1	0
PNC	0	899	332339	123	129	50	50	6	0
PNC	0	899	332339	123	131	100	100	8	1
PNC	0	899	332339	123	131	200	200	18	4
PNC	0	899	332339	123	133	500	500	38	13
PNC	0	899	332339	123	135	1000	1000	79	33
PNC	0	899	332339	123	135	5000	5000	426	375
PNC	0	899	332339	123	137	10000	10000	853	1224
PNC*	0	899	332339	123	123	2	2	1	0
PNC*	0	899	332339	123	125	5	5	1	0
PNC*	0	899	332339	123	125	10	10	1	0
PNC*	0	899	332339	123	127	20	20	1	0
PNC*	0	899	332339	123	129	50	50	6	0
PNC*	0	899	332339	123	131	100	100	8	1
PNC*	0	899	332339	123	131	200	200	18	4
PNC*	0	899	332339	123	133	500	500	38	13
PNC*	0	899	332339	123	135	1000	1000	79	33
PNC*	0	899	332339	123	135	5000	5000	426	372
PNC*	0	899	332339	123	137	10000	10000	853	1209
SB	0	899	332339	123	123	2	2	1	0
SB	0	899	332339	123	125	5	5	1	0
SB	0	899	332339	123	125	10	10	1	0
SB	0	899	332339	123	127	20	20	1	0
SB	0	899	332339	123	129	50	50	6	0
SB	0	899	332339	123	131	100	100	8	0
SB	0	899	332339	123	131	200	200	18	2
SB	0	899	332339	123	133	500	500	38	7
SB	0	899	332339	123	135	1000	1000	79	15
SB	0	899	332339	123	135	5000	5000	423	80
SB	0	899	332339	123	137	10000	10000	846	157
SB*	0	899	332339	123	123	2	2	1	0
SB*	0	899	332339	123	125	5	5	1	0
SB*	0	899	332339	123	125	10	10	1	0
SB*	0	899	332339	123	127	20	20	1	0
SB*	0	899	332339	123	129	50	50	6	0
SB*	0	899	332339	123	131	100	100	8	0
SB*	0	899	332339	123	131	200	200	18	1
SB*	0	899	332339	123	133	500	500	38	5
SB*	0	899	332339	123	135	1000	1000	79	11
SB*	0	899	332339	123	135	5000	5000	423	66
SB*	0	899	332339	123	137	10000	10000	846	133
PSB	0	899	332339	123	123	2	2	1	0
PSB	0	899	332339	123	125	5	5	1	0
PSB	0	899	332339	123	125	10	10	1	0
PSB	0	899	332339	123	127	20	20	1	0
PSB	0	899	332339	123	129	50	50	4	0
PSB	0	899	332339	123	131	100	100	5	0
PSB	0	899	332339	123	131	200	200	13	1
PSB	0	899	332339	123	133	500	500	25	5
PSB	0	899	332339	123	135	1000	1000	54	12
PSB	0	899	332339	123	135	5000	5000	334	69
PSB	0	899	332339	123	137	10000	10000	685	138
PSBv2	0	899	332339	123	123	2	2	1	0
PSBv2	0	899	332339	123	125	5	5	1	0
PSBv2	0	899	332339	123	125	10	10	1	0
PSBv2	0	899	332339	123	127	20	20	1	0
PSBv2	0	899	332339	123	129	50	50	3	0
PSBv2	0	899	332339	123	131	100	100	4	0
PSBv2	0	899	332339	123	131	200	200	12	1
PSBv2	0	899	332339	123	133	500	500	24	5
PSBv2	0	899	332339	123	135	1000	1000	53	12
PSBv2	0	899	332339	123	135	5000	5000	340	69
PSBv2	0	899	332339	123	137	10000	10000	706	138
PSBv3	0	899	332339	123	123	2	2	1	0
PSBv3	0	899	332339	123	125	5	5	1	0
PSBv3	0	899	332339	123	125	10	10	1	0
PSBv3	0	899	332339	123	127	20	20	1	0
PSBv3	0	899	332339	123	129	50	50	3	0
PSBv3	0	899	332339	123	131	100	100	5	0
PSBv3	0	899	332339	123	131	200	200	13	1
PSBv3	0	899	332339	123	133	500	500	25	5
PSBv3	0	899	332339	123	135	1000	1000	54	12
PSBv3	0	899	332339	123	135	5000	5000	340	69
PSBv3	0	899	332339	123	137	10000	10000	706	137
